PWD /Users/Rambden/Downloads/Russian-Phd-LaTeX-Dissertation-Template-master/Dissertation
INPUT /usr/local/texlive/2012/texmf.cnf
INPUT /usr/local/texlive/2012/texmf/web2c/texmf.cnf
INPUT /usr/local/texlive/2012/texmf-var/web2c/pdftex/pdflatex.fmt
INPUT part1.tex
OUTPUT part1.log
INPUT /usr/local/texlive/2012/texmf-dist/fonts/map/fontname/texfonts.map
INPUT /usr/local/texlive/2012/texmf-dist/fonts/map/fontname/texfonts.map
INPUT /usr/local/texlive/2012/texmf-dist/fonts/tfm/public/cm/cmbx10.tfm
INPUT /usr/local/texlive/2012/texmf-dist/fonts/tfm/public/cm/cmti10.tfm
OUTPUT part1.pdf
INPUT /usr/local/texlive/2012/texmf-var/fonts/map/pdftex/updmap/pdftex.map
